{
  "project_info": {
    "project_number": "835514889186",
    "firebase_url": "https://fire-storm-e1b88.firebaseio.com",
    "project_id": "fire-storm-e1b88",
    "storage_bucket": "fire-storm-e1b88.appspot.com"
  },
  "client": [
    {
      "client_info": {
        "mobilesdk_app_id": "1:835514889186:android:bdccc6541ceb85a24affbb",
        "android_client_info": {
          "package_name": "com.firekasj.dfendo"
        }
      },
      "oauth_client": [
        {
          "client_id": "835514889186-173ieqngjp4uk9ddt3vkb2n2a5hesvbi.apps.googleusercontent.com",
          "client_type": 3
        }
      ],
      "api_key": [
        {
          "current_key": "AIzaSyCeukSci11p2Xma5iSofMvR0uC137iKMfU"
        }
      ],
      "services": {
        "appinvite_service": {
          "other_platform_oauth_client": [
            {
              "client_id": "835514889186-173ieqngjp4uk9ddt3vkb2n2a5hesvbi.apps.googleusercontent.com",
              "client_type": 3
            }
          ]
        }
      }
    }
  ],
  "configuration_version": "1"
}